{
    "homepage": "https://www.greenfoot.org/download",
    "version": "3.6.1",
    "license": "GPL-2.0-only",
    "depends": "OpenJFX",
    "url": "https://www.greenfoot.org/download/files/Greenfoot-generic-361.jar#dl.7z",
    "hash": "7f26c0351d5c8dd56b7fc8232ae0b6bd519a075a07eb98e3aecdd47e30968ba0",
    "installer": {
        "script": [
            "Expand-7ZipArchive \"$dir\\greenfoot-dist.jar\" \"$dir\" -Removal",
            "$jpxf=\"set JAVAFXPATH=$(appdir OpenJFX $global)\\current\"",
            "Set-Content \"$dir\\Greenfoot.bat\" (@('@echo off', 'set APPBASE=%~dp0', $jpxf, 'set CP=%APPBASE%lib\\bluej.jar', 'set JAVAFX_CP=\"%JAVAFXPATH%\\lib\\javafx.base.jar;%JAVAFXPATH%\\lib\\javafx.controls.jar;%JAVAFXPATH%\\lib\\javafx.fxml.jar;%JAVAFXPATH%\\lib\\javafx.graphics.jar;%JAVAFXPATH%\\lib\\javafx.media.jar;%JAVAFXPATH%\\lib\\javafx.properties.jar;%JAVAFXPATH%\\lib\\javafx.swing.jar;%JAVAFXPATH%\\lib\\javafx.swt.jar;%JAVAFXPATH%\\lib\\javafx.web.jar\"', 'start %JAVA_HOME%\\bin\\javaw.exe -Djavafx.embed.singleThread=true -cp %CP%;%JAVAFX_CP% bluej.Boot -greenfoot=true -bluej.compiler.showunchecked=false  -javafxpath=\"%JAVAFXPATH%\" %*') -join \"`r`n\") -Encoding Ascii"
        ]
    },
    "post_install": "Remove-Item \"$dir\\*.class\",\"$dir\\installer.props\",\"$dir\\META-INF\" -Force -Recurse",
    "bin": "Greenfoot.bat",
    "shortcuts": [
        [
            "Greenfoot.bat",
            "Greenfoot"
        ]
    ],
    "persist": "userhome",
    "checkver": "<p class=\"version\" style=\"float:none;font-size: 20px;display:block;margin-top: 10px;margin-bottom:10px;\">Version: ([\\d.]+)",
    "autoupdate": {
        "url": "https://www.greenfoot.org/download/files/Greenfoot-generic-$cleanVersion.jar#dl.7z"
    }
}
