{
    "homepage": "https://gluonhq.com/products/javafx/",
    "version": "11.0.2",
    "license": "GPL-2.0-only",
    "url": "http://gluonhq.com/download/javafx-11-0-2-sdk-windows/#/dl.7z",
    "hash": "2dd008e0c865f9bc02abd4aaf11ceeb15ca5bfe8c434e613501feda60528ce61",
    "extract_dir": "javafx-sdk-11.0.2",
    "checkver": "JavaFX Windows SDK[\\w\\W]+?<span class=\"label label-inverse\">([\\d.]+)</span>",
    "autoupdate": {
        "url": "http://gluonhq.com/download/javafx-$dashVersion-sdk-windows/#/dl.7z",
        "hash": {
            "url": "https://download2.gluonhq.com/openjfx/$version/openjfx-$version_windows-x64_bin-sdk.zip.sha256",
            "find": "($sha256)\\s+openjfx"
        }
    }
}